[
  {
    "elements": [
      {
        "id": "smoke-test;to-check-dependent-details-in-domain-dependent-page",
        "keyword": "Scenario",
        "line": 13,
        "name": "To check dependent details in Domain Dependent page",
        "steps": [
          {
            "arguments": [],
            "keyword": "Given ",
            "name": "User launches MBC application and enters credentials",
            "result": {
              "status": "passed",
              "duration": 130384955000
            },
            "line": 14,
            "match": {
              "location": "C:\\mbc_smokescript\\features\\step_definitions\\MBCSmoke.js:23"
            }
          },
          {
            "arguments": [],
            "keyword": "And ",
            "name": "User navigates to Menu and checks for Complete LifeEvent button",
            "result": {
              "status": "passed",
              "duration": 98287468000
            },
            "line": 15,
            "match": {
              "location": "C:\\mbc_smokescript\\features\\step_definitions\\MBCSmoke.js:177"
            }
          },
          {
            "arguments": [],
            "keyword": "When ",
            "name": "User navigates to Get Started Tab in Get Started Page",
            "result": {
              "status": "passed",
              "duration": 51139037900
            },
            "line": 16,
            "match": {
              "location": "C:\\mbc_smokescript\\features\\step_definitions\\MBCSmoke.js:213"
            }
          },
          {
            "arguments": [],
            "keyword": "And ",
            "name": "User navigates to Who's Covered Page and add's a dependent",
            "result": {
              "status": "passed",
              "duration": 104644388600
            },
            "line": 17,
            "match": {
              "location": "C:\\mbc_smokescript\\features\\step_definitions\\MBCSmoke.js:224"
            }
          },
          {
            "arguments": [],
            "keyword": "When ",
            "name": "User navigates to My Information Page",
            "result": {
              "status": "passed",
              "duration": 35266768900
            },
            "line": 18,
            "match": {
              "location": "C:\\mbc_smokescript\\features\\step_definitions\\MBCSmoke.js:264"
            }
          },
          {
            "arguments": [],
            "keyword": "And ",
            "name": "User navigates to Choose Benefits Page",
            "result": {
              "status": "passed",
              "duration": 20303383500
            },
            "line": 19,
            "match": {
              "location": "C:\\mbc_smokescript\\features\\step_definitions\\MBCSmoke.js:305"
            }
          },
          {
            "arguments": [],
            "keyword": "And ",
            "name": "User navigates to Medical Page and adds a plan to cart",
            "result": {
              "status": "passed",
              "duration": 41855221800
            },
            "line": 20,
            "match": {
              "location": "C:\\mbc_smokescript\\features\\step_definitions\\MBCSmoke.js:348"
            }
          },
          {
            "arguments": [],
            "keyword": "And ",
            "name": "User verifies whether the plan is added to cart and navigates to Supplemental page",
            "result": {
              "status": "passed",
              "duration": 15216444100
            },
            "line": 21,
            "match": {
              "location": "C:\\mbc_smokescript\\features\\step_definitions\\MBCSmoke.js:379"
            }
          },
          {
            "arguments": [],
            "keyword": "Then ",
            "name": "User navigates to Dental Page",
            "result": {
              "status": "passed",
              "duration": 15331821800
            },
            "line": 22,
            "match": {
              "location": "C:\\mbc_smokescript\\features\\step_definitions\\MBCSmoke.js:386"
            }
          },
          {
            "arguments": [],
            "keyword": "Then ",
            "name": "User navigates to Vision Page",
            "result": {
              "status": "passed",
              "duration": 15204943800
            },
            "line": 23,
            "match": {
              "location": "C:\\mbc_smokescript\\features\\step_definitions\\MBCSmoke.js:393"
            }
          },
          {
            "arguments": [],
            "keyword": "Then ",
            "name": "User navigates to Spending Accounts Page",
            "result": {
              "status": "passed",
              "duration": 15195458400
            },
            "line": 24,
            "match": {
              "location": "C:\\mbc_smokescript\\features\\step_definitions\\MBCSmoke.js:400"
            }
          },
          {
            "arguments": [],
            "keyword": "Then ",
            "name": "User navigates to Life Page",
            "result": {
              "status": "passed",
              "duration": 16659793301
            },
            "line": 25,
            "match": {
              "location": "C:\\mbc_smokescript\\features\\step_definitions\\MBCSmoke.js:407"
            }
          },
          {
            "arguments": [],
            "keyword": "Then ",
            "name": "User navigates to Disability Page",
            "result": {
              "status": "passed",
              "duration": 15434368599
            },
            "line": 26,
            "match": {
              "location": "C:\\mbc_smokescript\\features\\step_definitions\\MBCSmoke.js:414"
            }
          },
          {
            "arguments": [],
            "keyword": "Then ",
            "name": "User navigates to Protection Page",
            "result": {
              "status": "passed",
              "duration": 15527079800
            },
            "line": 27,
            "match": {
              "location": "C:\\mbc_smokescript\\features\\step_definitions\\MBCSmoke.js:421"
            }
          },
          {
            "arguments": [],
            "keyword": "Then ",
            "name": "User navigates to Additional Benefits Page",
            "result": {
              "status": "passed",
              "duration": 15160675200
            },
            "line": 28,
            "match": {
              "location": "C:\\mbc_smokescript\\features\\step_definitions\\MBCSmoke.js:428"
            }
          },
          {
            "arguments": [],
            "keyword": "Then ",
            "name": "User navigates to Review Your Cart Page and checks the check box and clicks on submit button",
            "result": {
              "status": "passed",
              "duration": 50753877500
            },
            "line": 29,
            "match": {
              "location": "C:\\mbc_smokescript\\features\\step_definitions\\MBCSmoke.js:435"
            }
          },
          {
            "arguments": [],
            "keyword": "And ",
            "name": "User verifies whether the life event is submitted",
            "result": {
              "status": "failed",
              "duration": 75123670001,
              "error_message": "TypeError: Cannot read property 'ELEMENT' of null\n    at Object.<anonymous> (C:\\mbc_smokescript\\features\\step_definitions\\MBCSmoke.js:454:49)\n    at Object.<anonymous> (C:\\Users\\Rachana-GN\\AppData\\Roaming\\npm\\node_modules\\nightwatch\\lib\\api\\protocol.js:1303:18)\n    at HttpRequest.<anonymous> (C:\\Users\\Rachana-GN\\AppData\\Roaming\\npm\\node_modules\\nightwatch\\lib\\index.js:366:18)\n    at emitTwo (events.js:106:13)\n    at HttpRequest.emit (events.js:191:7)\n    at HttpRequest.<anonymous> (C:\\Users\\Rachana-GN\\AppData\\Roaming\\npm\\node_modules\\nightwatch\\lib\\index.js:393:15)\n    at emitTwo (events.js:106:13)\n    at HttpRequest.emit (events.js:191:7)\n    at ClientRequest.<anonymous> (C:\\Users\\Rachana-GN\\AppData\\Roaming\\npm\\node_modules\\nightwatch\\lib\\http\\request.js:178:12)\n    at emitOne (events.js:96:13)"
            },
            "line": 30,
            "match": {
              "location": "C:\\mbc_smokescript\\features\\step_definitions\\MBCSmoke.js:446"
            }
          },
          {
            "arguments": [],
            "keyword": "Then ",
            "name": "User navigates to Domain Dependents page and verifies the dependent added in Who's Covered page",
            "result": {
              "status": "skipped"
            },
            "line": 31,
            "match": {
              "location": "C:\\mbc_smokescript\\features\\step_definitions\\MBCSmoke.js:314"
            }
          }
        ],
        "tags": [
          {
            "name": "@MBCSmoke",
            "line": 12
          },
          {
            "name": "@DependentVerification",
            "line": 12
          }
        ],
        "type": "scenario"
      }
    ],
    "id": "smoke-test",
    "keyword": "Feature",
    "line": 1,
    "name": "Smoke test",
    "tags": [],
    "uri": "C:\\mbc_smokescript\\features\\Sample_Project\\MBCSmoke.feature"
  }
]